Chapter 2 Tidyverse introduction | Follow-up on R
…
eu.year <- eu.country.year %>%
    group_by(year) %>%
    summarize(wealth = mean(wealth, na.rm = TRUE),
              quality.of.government = mean(quality.of.government, na.rm = TRUE))

We now have two datasets which need to combine.

2.1.5 Merging data sets

We cannot just paste the data sets together because they differ in the number of columns. As a first step, we need to create a new variable in the data set eu.year called country which identifies the country in that data set.

eu.year$country <- "EU"
eu.year

# A tibble: 26 x 4
    year wealth quality.of.government country
   <int>  <dbl>                 <dbl> <chr>  
 1  1990    NaN                   NaN EU     
 2  1991    NaN                   NaN EU     
 3  1992    NaN                   NaN EU     
 4  1993    NaN                   NaN EU     
 5  1994    NaN                   NaN EU     
 6  1995    NaN                   NaN EU     
 7  1996    NaN                   NaN EU     
 8  1997    NaN                   NaN EU     
 9  1998    NaN                   NaN EU     
10  1999    NaN                   NaN EU     
# ... with 16 more rows
…
